\relax 
\providecommand\hyper@newdestlabel[2]{}
\providecommand\HyperFirstAtBeginDocument{\AtBeginDocument}
\HyperFirstAtBeginDocument{\ifx\hyper@anchor\@undefined
\global\let\oldcontentsline\contentsline
\gdef\contentsline#1#2#3#4{\oldcontentsline{#1}{#2}{#3}}
\global\let\oldnewlabel\newlabel
\gdef\newlabel#1#2{\newlabelxx{#1}#2}
\gdef\newlabelxx#1#2#3#4#5#6{\oldnewlabel{#1}{{#2}{#3}}}
\AtEndDocument{\ifx\hyper@anchor\@undefined
\let\contentsline\oldcontentsline
\let\newlabel\oldnewlabel
\fi}
\fi}
\global\let\hyper@last\relax 
\gdef\HyperFirstAtBeginDocument#1{#1}
\providecommand\HyField@AuxAddToFields[1]{}
\providecommand\HyField@AuxAddToCoFields[2]{}
\citation{rivest2001leak}
\babel@aux{english}{}
\babel@aux{english}{}
\@writefile{toc}{\contentsline {section}{\numberline {1}Introduction}{1}{section.1}}
\@writefile{toc}{\contentsline {section}{\numberline {2}Implementation}{2}{section.2}}
\@writefile{toc}{\contentsline {subsection}{\numberline {2.1}Extending trap-door permutations to a common domain}{2}{subsection.2.1}}
\citation{rivest2001leak}
\citation{rivest2001leak}
\@writefile{toc}{\contentsline {subsection}{\numberline {2.2}Combining function}{3}{subsection.2.2}}
\newlabel{subsection:comb}{{2.2}{3}{Combining function}{subsection.2.2}{}}
\@writefile{lof}{\contentsline {figure}{\numberline {1}{\ignorespaces Illustration of the combining function}}{3}{figure.1}}
\newlabel{fig:combining-function}{{1}{3}{Illustration of the combining function}{figure.1}{}}
\@writefile{toc}{\contentsline {subsection}{\numberline {2.3}Signature method}{4}{subsection.2.3}}
\@writefile{toc}{\contentsline {subsection}{\numberline {2.4}Verify method}{5}{subsection.2.4}}
\@writefile{toc}{\contentsline {section}{\numberline {3}Manual}{6}{section.3}}
\@writefile{toc}{\contentsline {subsection}{\numberline {3.1}Create keys}{6}{subsection.3.1}}
\@writefile{toc}{\contentsline {subsection}{\numberline {3.2}Create ring signature}{6}{subsection.3.2}}
\@writefile{toc}{\contentsline {subsection}{\numberline {3.3}Verify ring signature}{6}{subsection.3.3}}
\@writefile{toc}{\contentsline {section}{\numberline {4}Conclusion}{7}{section.4}}
\bibstyle{unsrt}
\bibdata{bibliography}
\bibcite{rivest2001leak}{1}
\gdef\minted@oldcachelist{,
  default-pyg-prefix.pygstyle,
  default.pygstyle,
  2BA4B4A8E939FB0C4F252CB67E80E8F22E92CF7952981697980C6B12BCEEF182.pygtex,
  5F726E0CE5234AD0F952AC9DF57B0FCF2E92CF7952981697980C6B12BCEEF182.pygtex,
  8E3CEA2C38452786727F93C7C43BE80C2E92CF7952981697980C6B12BCEEF182.pygtex,
  4BEE0049D812E1197039EF8792570D322E92CF7952981697980C6B12BCEEF182.pygtex,
  84BC6BD8D2B1B02F6869E5C3FF7DAF0E2E92CF7952981697980C6B12BCEEF182.pygtex,
  309CAD60BAB023803C9770B7E99631702E92CF7952981697980C6B12BCEEF182.pygtex,
  E4861DDA1FCA2211EFC68A02635A1C692E92CF7952981697980C6B12BCEEF182.pygtex,
  3EF688877733B23666C5EE2FDFCEC7ED2E92CF7952981697980C6B12BCEEF182.pygtex,
  0E7F48AE45B23040AE2F4ECD46A73E2E2E92CF7952981697980C6B12BCEEF182.pygtex,
  2510A4052A45287437B6C513A5014FCE2E92CF7952981697980C6B12BCEEF182.pygtex,
  9DC26DF7574B8D65B214339C0944CA1C2E92CF7952981697980C6B12BCEEF182.pygtex,
  44D7E2CECE8A56B76B5D43D4F37776062E92CF7952981697980C6B12BCEEF182.pygtex}
